…
Let’s look at the diamond prices by size, cut quality and clarity.

``` r
tdf = diamonds

tdf
```

    ## # A tibble: 53,940 × 10
    ##    carat cut       color clarity depth table price     x     y     z
    ##    <dbl> <ord>     <ord> <ord>   <dbl> <dbl> <int> <dbl> <dbl> <dbl>
    ##  1  0.23 Ideal     E     SI2      61.5    55   326  3.95  3.98  2.43
    ##  2  0.21 Premium   E     SI1      59.8    61   326  3.89  3.84  2.31
    ##  3  0.23 Good      E     VS1      56.9    65   327  4.05  4.07  2.31
    ##  4  0.29 Premium   I     VS2      62.4    58   334  4.2   4.23  2.63
    ##  5  0.31 Good      J     SI2      63.3    58   335  4.34  4.35  2.75
    ##  6  0.24 Very Good J     VVS2     62.8    57   336  3.94  3.96  2.48
    ##  7  0.24 Very Good I     VVS1     62.3    57   336  3.95  3.98  2.47
    ##  8  0.26 Very Good H     SI1      61.9    55   337  4.07  4.11  2.53
    ##  9  0.22 Fair      E     VS2      65.1    61   337  3.87  3.78  2.49
    ## 10  0.23 Very Good H     VS1      59.4    61   338  4     4.05  2.39
    ## # ℹ 53,930 more rows

Cut and clarity are ordinal factors, so let’s partition each of these
variables into just two categories - good and bad - roughly in th middle
of the ordinal scale. Let’s pick carat = 1, as an arbitrary size
threshold.

``` r
tdf %>% mutate(Good_cut = as.numeric(cut %in% c('Premium', 'Ideal')), Desired_color = as.numeric(color %in% c('D', 'E', 'F')), Desired_clarity = as.numeric(clarity %in% c('VS1', 'VVS2', 'VVS1', 'IF')), Weights_1_carat = as.numeric(carat >= 1)) %>% select(carat, Weights_1_carat, cut, Good_cut, color, Desired_color, clarity, Desired_clarity, price) -> tdf

tdf
```

    ## # A tibble: 53,940 × 9
    ##    carat Weights_1_carat cut       Good_cut color Desired_color clarity
    ##    <dbl>           <dbl> <ord>        <dbl> <ord>         <dbl> <ord>  
    ##  1  0.23               0 Ideal            1 E                 1 SI2    
    ##  2  0.21               0 Premium          1 E                 1 SI1    
    ##  3  0.23               0 Good             0 E                 1 VS1    
    ##  4  0.29               0 Premium          1 I                 0 VS2    
    ##  5  0.31               0 Good             0 J                 0 SI2    
    ##  6  0.24               0 Very Good        0 J                 0 VVS2   
    ##  7  0.24               0 Very Good        0 I                 0 VVS1   
    ##  8  0.26               0 Very Good        0 H                 0 SI1    
    ##  9  0.22               0 Fair             0 E                 1 VS2    
    ## 10  0.23               0 Very Good        0 H                 0 VS1    
    ## # ℹ 53,930 more rows
    ## # ℹ 2 more variables: Desired_clarity <dbl>, price <int>
…
## Titanic passengers

Lastly, we can present a few summary statistics simultaneously.

``` r
titanic <- as_tibble(Titanic)
titanic
```

    ## # A tibble: 32 × 5
    ##    Class Sex    Age   Survived     n
    ##    <chr> <chr>  <chr> <chr>    <dbl>
    ##  1 1st   Male   Child No           0
    ##  2 2nd   Male   Child No           0
    ##  3 3rd   Male   Child No          35
    ##  4 Crew  Male   Child No           0
    ##  5 1st   Female Child No           0
    ##  6 2nd   Female Child No           0
    ##  7 3rd   Female Child No          17
    ##  8 Crew  Female Child No           0
    ##  9 1st   Male   Adult No         118
    ## 10 2nd   Male   Adult No         154
    ## # ℹ 22 more rows
…
